code/sim/trace_output.txt
=== 1000 条指令执行跟踪 ===
格式: 周期 PC(instr#) inst_hex 对应testac模拟.txt行号
========================================
1 00000000 ff010113
2 00000004 00112623
3 00000008 00812423
4 0000000c 01010413
5 00000010 40000113
6 00000014 234000ef
7 00000248 ff010113
8 0000024c 00112623
9 00000250 e0000737
10 00000254 001117b7
11 00000258 10078793
12 0000025c 00f72023
13 00000260 aaaab7b7
14 00000264 aa178793
15 00000268 00f02223
16 0000026c 0066d537
17 00000270 cff50513
18 00000274 fa9ff0ef
19 0000021c 00a50513
20 00000220 00351793
21 00000224 00a7e7b3
22 00000228 fb9bd737
23 0000022c e9770713
24 00000230 00e787b3
25 00000234 4057d713
26 00000238 40e787b3
27 0000023c 0057d513
28 00000240 00f50533
29 00000244 00008067
30 00000278 0712f7b7
31 0000027c 73178793
32 00000280 00f51863
33 00000284 00c12083
34 00000288 01010113
35 0000028c 00008067
36 00000018 2c0000ef
37 000002d8 ff010113
38 000002dc 00112623
39 000002e0 00912423
40 000002e4 e0000737
41 000002e8 002227b7
42 000002ec 20078793
43 000002f0 00f72023
44 000002f4 00400713
45 000002f8 00072783
46 000002fc 00479793
47 00000300 0027e793
48 00000304 00f72023
49 00000308 00800493
50 0000030c 06100793
51 00000310 00f48023
52 00000314 02900793
53 00000318 00f004a3
54 0000031c 07800793
55 00000320 00f00523
56 00000324 05f00793
57 00000328 00f005a3
58 0000032c 00800513
59 00000330 f65ff0ef
60 00000294 00051703
61 00000298 00255783
62 0000029c 00f747b3
63 000002a0 40175713
64 000002a4 00e7c7b3
65 000002a8 00f51123
66 000002ac 00052783
67 000002b0 0001c737
68 000002b4 f5270713
69 000002b8 00e7c7b3
70 000002bc 00f52023
71 000002c0 4107d713
72 000002c4 0107d793
73 000002c8 0ff7f793
74 000002cc 40f707b3
75 000002d0 00f52223
76 000002d4 00008067
77 00000334 0004a703
78 00000338 62a897b7
79 0000033c 63378793
80 00000340 02f71263
81 00000364 ea1ff0ef
82 00000204 f0000737
83 00000208 00402783
84 0000020c 00e7e7b3
85 00000210 e0000737
86 00000214 00f72023
87 00000218 0000006f
*** 警告: PC 连续重复! PC=00000218, 周期=88 ***
88 00000218 0000006f
89 00000218 0000006f
90 00000218 0000006f
91 00000218 0000006f
92 00000218 0000006f
93 00000218 0000006f
94 00000218 0000006f
95 00000218 0000006f
96 00000218 0000006f
97 00000218 0000006f
98 00000218 0000006f
99 00000218 0000006f
100 00000218 0000006f
101 00000218 0000006f
102 00000218 0000006f
103 00000218 0000006f
104 00000218 0000006f
105 00000218 0000006f
106 00000218 0000006f
107 00000218 0000006f
108 00000218 0000006f
109 00000218 0000006f
110 00000218 0000006f
111 00000218 0000006f
112 00000218 0000006f
113 00000218 0000006f
114 00000218 0000006f
115 00000218 0000006f
116 00000218 0000006f
117 00000218 0000006f
118 00000218 0000006f
119 00000218 0000006f
120 00000218 0000006f
121 00000218 0000006f
122 00000218 0000006f
123 00000218 0000006f
124 00000218 0000006f
125 00000218 0000006f
126 00000218 0000006f
127 00000218 0000006f
128 00000218 0000006f
129 00000218 0000006f
130 00000218 0000006f
131 00000218 0000006f
132 00000218 0000006f
133 00000218 0000006f
134 00000218 0000006f
135 00000218 0000006f
136 00000218 0000006f
137 00000218 0000006f
138 00000218 0000006f
139 00000218 0000006f
140 00000218 0000006f
141 00000218 0000006f
142 00000218 0000006f
143 00000218 0000006f
144 00000218 0000006f
145 00000218 0000006f
146 00000218 0000006f
147 00000218 0000006f
148 00000218 0000006f
149 00000218 0000006f
150 00000218 0000006f
151 00000218 0000006f
152 00000218 0000006f
153 00000218 0000006f
154 00000218 0000006f
155 00000218 0000006f
156 00000218 0000006f
157 00000218 0000006f
158 00000218 0000006f
159 00000218 0000006f
160 00000218 0000006f
161 00000218 0000006f
162 00000218 0000006f
163 00000218 0000006f
164 00000218 0000006f
165 00000218 0000006f
166 00000218 0000006f
167 00000218 0000006f
168 00000218 0000006f
169 00000218 0000006f
170 00000218 0000006f
171 00000218 0000006f
172 00000218 0000006f
173 00000218 0000006f
174 00000218 0000006f
175 00000218 0000006f
176 00000218 0000006f
177 00000218 0000006f
178 00000218 0000006f
179 00000218 0000006f
180 00000218 0000006f
181 00000218 0000006f
182 00000218 0000006f
183 00000218 0000006f
184 00000218 0000006f
185 00000218 0000006f
186 00000218 0000006f
187 00000218 0000006f
188 00000218 0000006f
189 00000218 0000006f
190 00000218 0000006f
191 00000218 0000006f
192 00000218 0000006f
193 00000218 0000006f
194 00000218 0000006f
195 00000218 0000006f
196 00000218 0000006f
197 00000218 0000006f
198 00000218 0000006f
199 00000218 0000006f
200 00000218 0000006f
201 00000218 0000006f
202 00000218 0000006f
203 00000218 0000006f
204 00000218 0000006f
205 00000218 0000006f
206 00000218 0000006f
207 00000218 0000006f
208 00000218 0000006f
209 00000218 0000006f
210 00000218 0000006f
211 00000218 0000006f
212 00000218 0000006f
213 00000218 0000006f
214 00000218 0000006f
215 00000218 0000006f
216 00000218 0000006f
217 00000218 0000006f
218 00000218 0000006f
219 00000218 0000006f
220 00000218 0000006f
221 00000218 0000006f
222 00000218 0000006f
223 00000218 0000006f
224 00000218 0000006f
225 00000218 0000006f
226 00000218 0000006f
227 00000218 0000006f
228 00000218 0000006f
229 00000218 0000006f
230 00000218 0000006f
231 00000218 0000006f
232 00000218 0000006f
233 00000218 0000006f
234 00000218 0000006f
235 00000218 0000006f
236 00000218 0000006f
237 00000218 0000006f
238 00000218 0000006f
239 00000218 0000006f
240 00000218 0000006f
241 00000218 0000006f
242 00000218 0000006f
243 00000218 0000006f
244 00000218 0000006f
245 00000218 0000006f
246 00000218 0000006f
247 00000218 0000006f
248 00000218 0000006f
249 00000218 0000006f
250 00000218 0000006f
251 00000218 0000006f
252 00000218 0000006f
253 00000218 0000006f
254 00000218 0000006f
255 00000218 0000006f
256 00000218 0000006f
257 00000218 0000006f
258 00000218 0000006f
259 00000218 0000006f
260 00000218 0000006f
261 00000218 0000006f
262 00000218 0000006f
263 00000218 0000006f
264 00000218 0000006f
265 00000218 0000006f
266 00000218 0000006f
267 00000218 0000006f
268 00000218 0000006f
269 00000218 0000006f
270 00000218 0000006f
271 00000218 0000006f
272 00000218 0000006f
273 00000218 0000006f
274 00000218 0000006f
275 00000218 0000006f
276 00000218 0000006f
277 00000218 0000006f
278 00000218 0000006f
279 00000218 0000006f
280 00000218 0000006f
281 00000218 0000006f
282 00000218 0000006f
283 00000218 0000006f
284 00000218 0000006f
285 00000218 0000006f
286 00000218 0000006f
287 00000218 0000006f
288 00000218 0000006f
289 00000218 0000006f
290 00000218 0000006f
291 00000218 0000006f
292 00000218 0000006f
293 00000218 0000006f
294 00000218 0000006f
295 00000218 0000006f
296 00000218 0000006f
297 00000218 0000006f
298 00000218 0000006f
299 00000218 0000006f
300 00000218 0000006f
301 00000218 0000006f
302 00000218 0000006f
303 00000218 0000006f
304 00000218 0000006f
305 00000218 0000006f
306 00000218 0000006f
307 00000218 0000006f
308 00000218 0000006f
309 00000218 0000006f
310 00000218 0000006f
311 00000218 0000006f
312 00000218 0000006f
313 00000218 0000006f
314 00000218 0000006f
315 00000218 0000006f
316 00000218 0000006f
317 00000218 0000006f
318 00000218 0000006f
319 00000218 0000006f
320 00000218 0000006f
321 00000218 0000006f
322 00000218 0000006f
323 00000218 0000006f
324 00000218 0000006f
325 00000218 0000006f
326 00000218 0000006f
327 00000218 0000006f
328 00000218 0000006f
329 00000218 0000006f
330 00000218 0000006f
331 00000218 0000006f
332 00000218 0000006f
333 00000218 0000006f
334 00000218 0000006f
335 00000218 0000006f
336 00000218 0000006f
337 00000218 0000006f
338 00000218 0000006f
339 00000218 0000006f
340 00000218 0000006f
341 00000218 0000006f
342 00000218 0000006f
343 00000218 0000006f
344 00000218 0000006f
345 00000218 0000006f
346 00000218 0000006f
347 00000218 0000006f
348 00000218 0000006f
349 00000218 0000006f
350 00000218 0000006f
351 00000218 0000006f
352 00000218 0000006f
353 00000218 0000006f
354 00000218 0000006f
355 00000218 0000006f
356 00000218 0000006f
357 00000218 0000006f
358 00000218 0000006f
359 00000218 0000006f
360 00000218 0000006f
361 00000218 0000006f
362 00000218 0000006f
363 00000218 0000006f
364 00000218 0000006f
365 00000218 0000006f
366 00000218 0000006f
367 00000218 0000006f
368 00000218 0000006f
369 00000218 0000006f
370 00000218 0000006f
371 00000218 0000006f
372 00000218 0000006f
373 00000218 0000006f
374 00000218 0000006f
375 00000218 0000006f
376 00000218 0000006f
377 00000218 0000006f
378 00000218 0000006f
379 00000218 0000006f
380 00000218 0000006f
381 00000218 0000006f
382 00000218 0000006f
383 00000218 0000006f
384 00000218 0000006f
385 00000218 0000006f
386 00000218 0000006f
387 00000218 0000006f
388 00000218 0000006f
389 00000218 0000006f
390 00000218 0000006f
391 00000218 0000006f
392 00000218 0000006f
393 00000218 0000006f
394 00000218 0000006f
395 00000218 0000006f
396 00000218 0000006f
397 00000218 0000006f
398 00000218 0000006f
399 00000218 0000006f
400 00000218 0000006f
401 00000218 0000006f
402 00000218 0000006f
403 00000218 0000006f
404 00000218 0000006f
405 00000218 0000006f
406 00000218 0000006f
407 00000218 0000006f
408 00000218 0000006f
409 00000218 0000006f
410 00000218 0000006f
411 00000218 0000006f
412 00000218 0000006f
413 00000218 0000006f
414 00000218 0000006f
415 00000218 0000006f
416 00000218 0000006f
417 00000218 0000006f
418 00000218 0000006f
419 00000218 0000006f
420 00000218 0000006f
421 00000218 0000006f
422 00000218 0000006f
423 00000218 0000006f
424 00000218 0000006f
425 00000218 0000006f
426 00000218 0000006f
427 00000218 0000006f
428 00000218 0000006f
429 00000218 0000006f
430 00000218 0000006f
431 00000218 0000006f
432 00000218 0000006f
433 00000218 0000006f
434 00000218 0000006f
435 00000218 0000006f
436 00000218 0000006f
437 00000218 0000006f
438 00000218 0000006f
439 00000218 0000006f
440 00000218 0000006f
441 00000218 0000006f
442 00000218 0000006f
443 00000218 0000006f
444 00000218 0000006f
445 00000218 0000006f
446 00000218 0000006f
447 00000218 0000006f
448 00000218 0000006f
449 00000218 0000006f
450 00000218 0000006f
451 00000218 0000006f
452 00000218 0000006f
453 00000218 0000006f
454 00000218 0000006f
455 00000218 0000006f
456 00000218 0000006f
457 00000218 0000006f
458 00000218 0000006f
459 00000218 0000006f
460 00000218 0000006f
461 00000218 0000006f
462 00000218 0000006f
463 00000218 0000006f
464 00000218 0000006f
465 00000218 0000006f
466 00000218 0000006f
467 00000218 0000006f
468 00000218 0000006f
469 00000218 0000006f
470 00000218 0000006f
471 00000218 0000006f
472 00000218 0000006f
473 00000218 0000006f
474 00000218 0000006f
475 00000218 0000006f
476 00000218 0000006f
477 00000218 0000006f
478 00000218 0000006f
479 00000218 0000006f
480 00000218 0000006f
481 00000218 0000006f
482 00000218 0000006f
483 00000218 0000006f
484 00000218 0000006f
485 00000218 0000006f
486 00000218 0000006f
487 00000218 0000006f
488 00000218 0000006f
489 00000218 0000006f
490 00000218 0000006f
491 00000218 0000006f
492 00000218 0000006f
493 00000218 0000006f
494 00000218 0000006f
495 00000218 0000006f
496 00000218 0000006f
497 00000218 0000006f
498 00000218 0000006f
499 00000218 0000006f
500 00000218 0000006f
501 00000218 0000006f
502 00000218 0000006f
503 00000218 0000006f
504 00000218 0000006f
505 00000218 0000006f
506 00000218 0000006f
507 00000218 0000006f
508 00000218 0000006f
509 00000218 0000006f
510 00000218 0000006f
511 00000218 0000006f
512 00000218 0000006f
513 00000218 0000006f
514 00000218 0000006f
515 00000218 0000006f
516 00000218 0000006f
517 00000218 0000006f
518 00000218 0000006f
519 00000218 0000006f
520 00000218 0000006f
521 00000218 0000006f
522 00000218 0000006f
523 00000218 0000006f
524 00000218 0000006f
525 00000218 0000006f
526 00000218 0000006f
527 00000218 0000006f
528 00000218 0000006f
529 00000218 0000006f
530 00000218 0000006f
531 00000218 0000006f
532 00000218 0000006f
533 00000218 0000006f
534 00000218 0000006f
535 00000218 0000006f
536 00000218 0000006f
537 00000218 0000006f
538 00000218 0000006f
539 00000218 0000006f
540 00000218 0000006f
541 00000218 0000006f
542 00000218 0000006f
543 00000218 0000006f
544 00000218 0000006f
545 00000218 0000006f
546 00000218 0000006f
547 00000218 0000006f
548 00000218 0000006f
549 00000218 0000006f
550 00000218 0000006f
551 00000218 0000006f
552 00000218 0000006f
553 00000218 0000006f
554 00000218 0000006f
555 00000218 0000006f
556 00000218 0000006f
557 00000218 0000006f
558 00000218 0000006f
559 00000218 0000006f
560 00000218 0000006f
561 00000218 0000006f
562 00000218 0000006f
563 00000218 0000006f
564 00000218 0000006f
565 00000218 0000006f
566 00000218 0000006f
567 00000218 0000006f
568 00000218 0000006f
569 00000218 0000006f
570 00000218 0000006f
571 00000218 0000006f
572 00000218 0000006f
573 00000218 0000006f
574 00000218 0000006f
575 00000218 0000006f
576 00000218 0000006f
577 00000218 0000006f
578 00000218 0000006f
579 00000218 0000006f
580 00000218 0000006f
581 00000218 0000006f
582 00000218 0000006f
583 00000218 0000006f
584 00000218 0000006f
585 00000218 0000006f
586 00000218 0000006f
587 00000218 0000006f
588 00000218 0000006f
589 00000218 0000006f
590 00000218 0000006f
591 00000218 0000006f
592 00000218 0000006f
593 00000218 0000006f
594 00000218 0000006f
595 00000218 0000006f
596 00000218 0000006f
597 00000218 0000006f
598 00000218 0000006f
599 00000218 0000006f
600 00000218 0000006f
601 00000218 0000006f
602 00000218 0000006f
603 00000218 0000006f
604 00000218 0000006f
605 00000218 0000006f
606 00000218 0000006f
607 00000218 0000006f
608 00000218 0000006f
609 00000218 0000006f
610 00000218 0000006f
611 00000218 0000006f
612 00000218 0000006f
613 00000218 0000006f
614 00000218 0000006f
615 00000218 0000006f
616 00000218 0000006f
617 00000218 0000006f
618 00000218 0000006f
619 00000218 0000006f
620 00000218 0000006f
621 00000218 0000006f
622 00000218 0000006f
623 00000218 0000006f
624 00000218 0000006f
625 00000218 0000006f
626 00000218 0000006f
627 00000218 0000006f
628 00000218 0000006f
629 00000218 0000006f
630 00000218 0000006f
631 00000218 0000006f
632 00000218 0000006f
633 00000218 0000006f
634 00000218 0000006f
635 00000218 0000006f
636 00000218 0000006f
637 00000218 0000006f
638 00000218 0000006f
639 00000218 0000006f
640 00000218 0000006f
641 00000218 0000006f
642 00000218 0000006f
643 00000218 0000006f
644 00000218 0000006f
645 00000218 0000006f
646 00000218 0000006f
647 00000218 0000006f
648 00000218 0000006f
649 00000218 0000006f
650 00000218 0000006f
651 00000218 0000006f
652 00000218 0000006f
653 00000218 0000006f
654 00000218 0000006f
655 00000218 0000006f
656 00000218 0000006f
657 00000218 0000006f
658 00000218 0000006f
659 00000218 0000006f
660 00000218 0000006f
661 00000218 0000006f
662 00000218 0000006f
663 00000218 0000006f
664 00000218 0000006f
665 00000218 0000006f
666 00000218 0000006f
667 00000218 0000006f
668 00000218 0000006f
669 00000218 0000006f
670 00000218 0000006f
671 00000218 0000006f
672 00000218 0000006f
673 00000218 0000006f
674 00000218 0000006f
675 00000218 0000006f
676 00000218 0000006f
677 00000218 0000006f
678 00000218 0000006f
679 00000218 0000006f
680 00000218 0000006f
681 00000218 0000006f
682 00000218 0000006f
683 00000218 0000006f
684 00000218 0000006f
685 00000218 0000006f
686 00000218 0000006f
687 00000218 0000006f
688 00000218 0000006f
689 00000218 0000006f
690 00000218 0000006f
691 00000218 0000006f
692 00000218 0000006f
693 00000218 0000006f
694 00000218 0000006f
695 00000218 0000006f
696 00000218 0000006f
697 00000218 0000006f
698 00000218 0000006f
699 00000218 0000006f
700 00000218 0000006f
701 00000218 0000006f
702 00000218 0000006f
703 00000218 0000006f
704 00000218 0000006f
705 00000218 0000006f
706 00000218 0000006f
707 00000218 0000006f
708 00000218 0000006f
709 00000218 0000006f
710 00000218 0000006f
711 00000218 0000006f
712 00000218 0000006f
713 00000218 0000006f
714 00000218 0000006f
715 00000218 0000006f
716 00000218 0000006f
717 00000218 0000006f
718 00000218 0000006f
719 00000218 0000006f
720 00000218 0000006f
721 00000218 0000006f
722 00000218 0000006f
723 00000218 0000006f
724 00000218 0000006f
725 00000218 0000006f
726 00000218 0000006f
727 00000218 0000006f
728 00000218 0000006f
729 00000218 0000006f
730 00000218 0000006f
731 00000218 0000006f
732 00000218 0000006f
733 00000218 0000006f
734 00000218 0000006f
735 00000218 0000006f
736 00000218 0000006f
737 00000218 0000006f
738 00000218 0000006f
739 00000218 0000006f
740 00000218 0000006f
741 00000218 0000006f
742 00000218 0000006f
743 00000218 0000006f
744 00000218 0000006f
745 00000218 0000006f
746 00000218 0000006f
747 00000218 0000006f
748 00000218 0000006f
749 00000218 0000006f
750 00000218 0000006f
751 00000218 0000006f
752 00000218 0000006f
753 00000218 0000006f
754 00000218 0000006f
755 00000218 0000006f
756 00000218 0000006f
757 00000218 0000006f
758 00000218 0000006f
759 00000218 0000006f
760 00000218 0000006f
761 00000218 0000006f
762 00000218 0000006f
763 00000218 0000006f
764 00000218 0000006f
765 00000218 0000006f
766 00000218 0000006f
767 00000218 0000006f
768 00000218 0000006f
769 00000218 0000006f
770 00000218 0000006f
771 00000218 0000006f
772 00000218 0000006f
773 00000218 0000006f
774 00000218 0000006f
775 00000218 0000006f
776 00000218 0000006f
777 00000218 0000006f
778 00000218 0000006f
779 00000218 0000006f
780 00000218 0000006f
781 00000218 0000006f
782 00000218 0000006f
783 00000218 0000006f
784 00000218 0000006f
785 00000218 0000006f
786 00000218 0000006f
787 00000218 0000006f
788 00000218 0000006f
789 00000218 0000006f
790 00000218 0000006f
791 00000218 0000006f
792 00000218 0000006f
793 00000218 0000006f
794 00000218 0000006f
795 00000218 0000006f
796 00000218 0000006f
797 00000218 0000006f
798 00000218 0000006f
799 00000218 0000006f
800 00000218 0000006f
801 00000218 0000006f
802 00000218 0000006f
803 00000218 0000006f
804 00000218 0000006f
805 00000218 0000006f
806 00000218 0000006f
807 00000218 0000006f
808 00000218 0000006f
809 00000218 0000006f
810 00000218 0000006f
811 00000218 0000006f
812 00000218 0000006f
813 00000218 0000006f
814 00000218 0000006f
815 00000218 0000006f
816 00000218 0000006f
817 00000218 0000006f
818 00000218 0000006f
819 00000218 0000006f
820 00000218 0000006f
821 00000218 0000006f
822 00000218 0000006f
823 00000218 0000006f
824 00000218 0000006f
825 00000218 0000006f
826 00000218 0000006f
827 00000218 0000006f
828 00000218 0000006f
829 00000218 0000006f
830 00000218 0000006f
831 00000218 0000006f
832 00000218 0000006f
833 00000218 0000006f
834 00000218 0000006f
835 00000218 0000006f
836 00000218 0000006f
837 00000218 0000006f
838 00000218 0000006f
839 00000218 0000006f
840 00000218 0000006f
841 00000218 0000006f
842 00000218 0000006f
843 00000218 0000006f
844 00000218 0000006f
845 00000218 0000006f
846 00000218 0000006f
847 00000218 0000006f
848 00000218 0000006f
849 00000218 0000006f
850 00000218 0000006f
851 00000218 0000006f
852 00000218 0000006f
853 00000218 0000006f
854 00000218 0000006f
855 00000218 0000006f
856 00000218 0000006f
857 00000218 0000006f
858 00000218 0000006f
859 00000218 0000006f
860 00000218 0000006f
861 00000218 0000006f
862 00000218 0000006f
863 00000218 0000006f
864 00000218 0000006f
865 00000218 0000006f
866 00000218 0000006f
867 00000218 0000006f
868 00000218 0000006f
869 00000218 0000006f
870 00000218 0000006f
871 00000218 0000006f
872 00000218 0000006f
873 00000218 0000006f
874 00000218 0000006f
875 00000218 0000006f
876 00000218 0000006f
877 00000218 0000006f
878 00000218 0000006f
879 00000218 0000006f
880 00000218 0000006f
881 00000218 0000006f
882 00000218 0000006f
883 00000218 0000006f
884 00000218 0000006f
885 00000218 0000006f
886 00000218 0000006f
887 00000218 0000006f
888 00000218 0000006f
889 00000218 0000006f
890 00000218 0000006f
891 00000218 0000006f
892 00000218 0000006f
893 00000218 0000006f
894 00000218 0000006f
895 00000218 0000006f
896 00000218 0000006f
897 00000218 0000006f
898 00000218 0000006f
899 00000218 0000006f
900 00000218 0000006f
901 00000218 0000006f
902 00000218 0000006f
903 00000218 0000006f
904 00000218 0000006f
905 00000218 0000006f
906 00000218 0000006f
907 00000218 0000006f
908 00000218 0000006f
909 00000218 0000006f
910 00000218 0000006f
911 00000218 0000006f
912 00000218 0000006f
913 00000218 0000006f
914 00000218 0000006f
915 00000218 0000006f
916 00000218 0000006f
917 00000218 0000006f
918 00000218 0000006f
919 00000218 0000006f
920 00000218 0000006f
921 00000218 0000006f
922 00000218 0000006f
923 00000218 0000006f
924 00000218 0000006f
925 00000218 0000006f
926 00000218 0000006f
927 00000218 0000006f
928 00000218 0000006f
929 00000218 0000006f
930 00000218 0000006f
931 00000218 0000006f
932 00000218 0000006f
933 00000218 0000006f
934 00000218 0000006f
935 00000218 0000006f
936 00000218 0000006f
937 00000218 0000006f
938 00000218 0000006f
939 00000218 0000006f
940 00000218 0000006f
941 00000218 0000006f
942 00000218 0000006f
943 00000218 0000006f
944 00000218 0000006f
945 00000218 0000006f
946 00000218 0000006f
947 00000218 0000006f
948 00000218 0000006f
949 00000218 0000006f
950 00000218 0000006f
951 00000218 0000006f
952 00000218 0000006f
953 00000218 0000006f
954 00000218 0000006f
955 00000218 0000006f
956 00000218 0000006f
957 00000218 0000006f
958 00000218 0000006f
959 00000218 0000006f
960 00000218 0000006f
961 00000218 0000006f
962 00000218 0000006f
963 00000218 0000006f
964 00000218 0000006f
965 00000218 0000006f
966 00000218 0000006f
967 00000218 0000006f
968 00000218 0000006f
969 00000218 0000006f
970 00000218 0000006f
971 00000218 0000006f
972 00000218 0000006f
973 00000218 0000006f
974 00000218 0000006f
975 00000218 0000006f
976 00000218 0000006f
977 00000218 0000006f
978 00000218 0000006f
979 00000218 0000006f
980 00000218 0000006f
981 00000218 0000006f
982 00000218 0000006f
983 00000218 0000006f
984 00000218 0000006f
985 00000218 0000006f
986 00000218 0000006f
987 00000218 0000006f
988 00000218 0000006f
989 00000218 0000006f
990 00000218 0000006f
991 00000218 0000006f
992 00000218 0000006f
993 00000218 0000006f
994 00000218 0000006f
995 00000218 0000006f
996 00000218 0000006f
997 00000218 0000006f
998 00000218 0000006f
999 00000218 0000006f
1000 00000218 0000006f

=== 1000 条指令执行完成 ===
PC=00000218
trace_tb.v:61: $finish called at 100150000 (1ps)
